<svg xmlns="http://www.w3.org/2000/svg" width="413.992" height="549.573" viewBox="0 0 413.992 549.573">
  <path id="Intersection_2" data-name="Intersection 2" d="M855.676,732.21c-10.927-44.377-27.357-82.811-29.084-85.936-2.663-4.958-55.171-155.346-57.417-166.49-2.224-11.74-20.281-70.487-20.281-70.487s15.247,21.792,20.792,35.329c5.841,13.879,21.383,44.736,27.123,53.142,5.594,8.6,20.376,41.072,21.01,46.081.683,5.5,12.879,33.08,17.812,43.052,5.107,10.555,7.405,34.694,9.139,38.972,1.905,3.912,9.724,18.787,13.072,27.266,2.536,7.208,27.249,61.618,34.885,79.07Zm-139.263,0c-14.045-37.463-27.874-74.408-28.8-76.6-1.542-4.229-37.211-108-46.4-153.274,0,0-9.371-129.266-161.217-208.06V184.052C555.182,232.281,622.072,275.7,637.284,286.91c37.161,27.511,60.057,45.6,73.935,70.88,0,0,22.064,42.781,39.848,111.513,17.4,69.025,59.863,173.477,61.061,177.656,0,0,16.032,46.954,27.559,85.252ZM688.569,469.572c-2.615,3.921-5.277,14.123-3.273,20.376,1.78,6.206,29.955,86.982,31.224,90.135l1.857,4.886,2.152-4.642c.414-.367,7.795-15.685,4.714-25.581-3.055-9.233-27.733-80.816-28.048-81.717-.661-1.491-2.226-4.531-4.935-5.107A4.414,4.414,0,0,0,688.569,469.572Zm-49.283-167.81c-5.936,5.574-6.988,16.212-7.331,16.871v.563l.343.134c.781,3.03,8.5,29.479,8.919,30.641.829,2.575,9.579,7.462,12.094,7.818a8.707,8.707,0,0,0,2.64-.465c1.955-1.833,2.344-5.386,2.344-7.208l.122-.292-.122-.331-15.611-46.715L641.56,299.7ZM499.745,732.21c19.965-44.888,60.2-133.792,62.967-141.45,3.52-10.041,28.835-90.133,34.258-110.121,4.542-20.3,6.009-48.717,6.009-48.717,2.64-4.215,21.844,42.011,22.8,56.489.879,14,17.079,74.545,17.079,74.545,3.2,13.7,43.333,125.68,59.643,169.254ZM480,316.833v-5.764c14.2,8.89,27.265,17.885,32.477,21.446A335.9,335.9,0,0,0,480,316.833Z" transform="translate(-479.5 -183.137)" fill="#fff" stroke="rgba(0,0,0,0)" stroke-miterlimit="10" stroke-width="1" opacity="0.2"/>
</svg>
